[
    {
        "event":"send",
        "msg":{
            "ts":1365109999,
            "subject":"no metadata",
            "email":"example.webhook@mandrillapp.com",
            "sender":"example.sender@mandrillapp.com",
            "tags":["webhook-example"],
            "state":"sent",
            "_id":"exampleaaaaaaaaaaaaaaaaaaaaaaaaa"
            },
        "_id":"exampleaaaaaaaaaaaaaaaaaaaaaaaaa",
        "ts":1494961393
    },{
        "event":"sent",
        "msg":{
            "ts":1365109999,
            "subject":"This an example webhook message",
            "email":"example.webhook@mandrillapp.com",
            "sender":"example.sender@mandrillapp.com",
            "tags":["webhook-example"],
            "state":"sent",
            "metadata" : { 
                "Entity" : "fake-entity-id", 
                "EmailMessage": "EmailMessage-Id-b9416c6a-4001-4da1-92a2-5360561d8dda", 
                "User": "fake-user-id", 
                "Env": "PP"
                },
                "_id":"exampleaaaaaaaaaaaaaaaaaaaaaaaaa2"},
                "_id":"exampleaaaaaaaaaaaaaaaaaaaaaaaaa2","ts":1494961393
        }
]